^C:\USERS\ХОЗЯИН\SOURCE\REPOS\CONSOLEAPPLICATION5\CONSOLEAPPLICATION5\PCH.CPP
C:\USERS\Хозяин\SOURCE\REPOS\CONSOLEAPPLICATION5\CONSOLEAPPLICATION5\DEBUG\CONSOLEAPPLICATION5.PCH
C:\USERS\Хозяин\SOURCE\REPOS\CONSOLEAPPLICATION5\CONSOLEAPPLICATION5\DEBUG\VC141.PDB
C:\USERS\Хозяин\SOURCE\REPOS\CONSOLEAPPLICATION5\CONSOLEAPPLICATION5\DEBUG\VC141.IDB
C:\USERS\Хозяин\SOURCE\REPOS\CONSOLEAPPLICATION5\CONSOLEAPPLICATION5\DEBUG\PCH.OBJ
^C:\USERS\ХОЗЯИН\SOURCE\REPOS\CONSOLEAPPLICATION5\CONSOLEAPPLICATION5\CONSOLEAPPLICATION5.CPP
C:\USERS\Хозяин\SOURCE\REPOS\CONSOLEAPPLICATION5\CONSOLEAPPLICATION5\DEBUG\VC141.PDB
C:\USERS\Хозяин\SOURCE\REPOS\CONSOLEAPPLICATION5\CONSOLEAPPLICATION5\DEBUG\VC141.IDB
C:\USERS\Хозяин\SOURCE\REPOS\CONSOLEAPPLICATION5\CONSOLEAPPLICATION5\DEBUG\CONSOLEAPPLICATION5.OBJ
