^C:\USERS\ХОЗЯИН\SOURCE\REPOS\ЛБ8\ЛБ8\PCH.CPP
C:\USERS\Хозяин\SOURCE\REPOS\лб8\лб8\X64\DEBUG\лб8.PCH
C:\USERS\Хозяин\SOURCE\REPOS\лб8\лб8\X64\DEBUG\VC141.PDB
C:\USERS\Хозяин\SOURCE\REPOS\лб8\лб8\X64\DEBUG\VC141.IDB
C:\USERS\Хозяин\SOURCE\REPOS\лб8\лб8\X64\DEBUG\PCH.OBJ
^C:\USERS\ХОЗЯИН\SOURCE\REPOS\ЛБ8\ЛБ8\ЛБ8.CPP
C:\USERS\Хозяин\SOURCE\REPOS\лб8\лб8\X64\DEBUG\VC141.PDB
C:\USERS\Хозяин\SOURCE\REPOS\лб8\лб8\X64\DEBUG\VC141.IDB
C:\USERS\Хозяин\SOURCE\REPOS\лб8\лб8\X64\DEBUG\лб8.OBJ
