^C:\USERS\ХОЗЯИН\SOURCE\REPOS\CONSOLEAPPLICATION5\CONSOLEAPPLICATION5\PCH.CPP
C:\USERS\Хозяин\SOURCE\REPOS\CONSOLEAPPLICATION5\CONSOLEAPPLICATION5\X64\RELEASE\CONSOLEAPPLICATION5.PCH
C:\USERS\Хозяин\SOURCE\REPOS\CONSOLEAPPLICATION5\CONSOLEAPPLICATION5\X64\RELEASE\VC141.PDB
C:\USERS\Хозяин\SOURCE\REPOS\CONSOLEAPPLICATION5\CONSOLEAPPLICATION5\X64\RELEASE\PCH.OBJ
