^C:\USERS\ХОЗЯИН\SOURCE\REPOS\CONSOLEAPPLICATION5\CONSOLEAPPLICATION5\X64\RELEASE\CONSOLEAPPLICATION5.OBJ|C:\USERS\ХОЗЯИН\SOURCE\REPOS\CONSOLEAPPLICATION5\CONSOLEAPPLICATION5\X64\RELEASE\PCH.OBJ
E:\WINDOWS KITS\10\LIB\10.0.17134.0\UM\X64\KERNEL32.LIB
E:\WINDOWS KITS\10\LIB\10.0.17134.0\UM\X64\USER32.LIB
E:\WINDOWS KITS\10\LIB\10.0.17134.0\UM\X64\GDI32.LIB
E:\WINDOWS KITS\10\LIB\10.0.17134.0\UM\X64\WINSPOOL.LIB
E:\WINDOWS KITS\10\LIB\10.0.17134.0\UM\X64\COMDLG32.LIB
E:\WINDOWS KITS\10\LIB\10.0.17134.0\UM\X64\ADVAPI32.LIB
E:\WINDOWS KITS\10\LIB\10.0.17134.0\UM\X64\SHELL32.LIB
E:\WINDOWS KITS\10\LIB\10.0.17134.0\UM\X64\OLE32.LIB
E:\WINDOWS KITS\10\LIB\10.0.17134.0\UM\X64\OLEAUT32.LIB
E:\WINDOWS KITS\10\LIB\10.0.17134.0\UM\X64\UUID.LIB
E:\WINDOWS KITS\10\LIB\10.0.17134.0\UM\X64\ODBC32.LIB
E:\WINDOWS KITS\10\LIB\10.0.17134.0\UM\X64\ODBCCP32.LIB
C:\USERS\Хозяин\SOURCE\REPOS\CONSOLEAPPLICATION5\CONSOLEAPPLICATION5\X64\RELEASE\CONSOLEAPPLICATION5.OBJ
C:\USERS\Хозяин\SOURCE\REPOS\CONSOLEAPPLICATION5\CONSOLEAPPLICATION5\X64\RELEASE\PCH.OBJ
C:\WINDOWS\GLOBALIZATION\SORTING\SORTDEFAULT.NLS
E:\PROGRAM FILES (X86)\MICROSOFT VISUAL STUDIO\2017\COMMUNITY\VC\TOOLS\MSVC\14.15.26726\BIN\HOSTX86\X64\C2.DLL
E:\PROGRAM FILES (X86)\MICROSOFT VISUAL STUDIO\2017\COMMUNITY\VC\TOOLS\MSVC\14.15.26726\LIB\X64\MSVCPRT.LIB
E:\PROGRAM FILES (X86)\MICROSOFT VISUAL STUDIO\2017\COMMUNITY\VC\TOOLS\MSVC\14.15.26726\LIB\X64\MSVCRT.LIB
E:\PROGRAM FILES (X86)\MICROSOFT VISUAL STUDIO\2017\COMMUNITY\VC\TOOLS\MSVC\14.15.26726\LIB\X64\OLDNAMES.LIB
E:\PROGRAM FILES (X86)\MICROSOFT VISUAL STUDIO\2017\COMMUNITY\VC\TOOLS\MSVC\14.15.26726\LIB\X64\VCRUNTIME.LIB
E:\WINDOWS KITS\10\LIB\10.0.17134.0\UCRT\X64\UCRT.LIB
E:\PROGRAM FILES (X86)\MICROSOFT VISUAL STUDIO\2017\COMMUNITY\VC\TOOLS\MSVC\14.15.26726\BIN\HOSTX86\X64\1049\LINKUI.DLL
E:\WINDOWS KITS\10\BIN\10.0.17134.0\X86\RC.EXE
E:\PROGRAM FILES (X86)\MICROSOFT VISUAL STUDIO\2017\COMMUNITY\VC\TOOLS\MSVC\14.15.26726\BIN\HOSTX86\X86\CVTRES.EXE
C:\WINDOWS\SYSTEM32\TZRES.DLL
