^C:\USERS\ХОЗЯИН\SOURCE\REPOS\CONSOLEAPPLICATION5\CONSOLEAPPLICATION5\X64\RELEASE\CONSOLEAPPLICATION5.OBJ|C:\USERS\ХОЗЯИН\SOURCE\REPOS\CONSOLEAPPLICATION5\CONSOLEAPPLICATION5\X64\RELEASE\PCH.OBJ
C:\USERS\Хозяин\SOURCE\REPOS\CONSOLEAPPLICATION5\X64\RELEASE\CONSOLEAPPLICATION5.EXE
C:\USERS\ХОЗЯИН\SOURCE\REPOS\CONSOLEAPPLICATION5\X64\RELEASE\CONSOLEAPPLICATION5.PDB
