^C:\USERS\ХОЗЯИН\SOURCE\REPOS\ЛБ5_2\ЛБ5_2\DEBUG\PCH.OBJ|C:\USERS\ХОЗЯИН\SOURCE\REPOS\ЛБ5_2\ЛБ5_2\DEBUG\ЛБ5_2.OBJ
C:\USERS\Хозяин\SOURCE\REPOS\лб5_2\DEBUG\лб5_2.EXE
C:\USERS\Хозяин\SOURCE\REPOS\лб5_2\DEBUG\лб5_2.ILK
C:\USERS\ХОЗЯИН\SOURCE\REPOS\ЛБ5_2\DEBUG\ЛБ5_2.PDB
