^C:\USERS\ХОЗЯИН\SOURCE\REPOS\ЛБ7\ЛБ7\PCH.CPP
C:\USERS\Хозяин\SOURCE\REPOS\лб7\лб7\DEBUG\лб7.PCH
C:\USERS\Хозяин\SOURCE\REPOS\лб7\лб7\DEBUG\VC141.PDB
C:\USERS\Хозяин\SOURCE\REPOS\лб7\лб7\DEBUG\VC141.IDB
C:\USERS\Хозяин\SOURCE\REPOS\лб7\лб7\DEBUG\PCH.OBJ
^C:\USERS\ХОЗЯИН\SOURCE\REPOS\ЛБ7\ЛБ7\ЛБ7.CPP
C:\USERS\Хозяин\SOURCE\REPOS\лб7\лб7\DEBUG\VC141.PDB
C:\USERS\Хозяин\SOURCE\REPOS\лб7\лб7\DEBUG\VC141.IDB
C:\USERS\Хозяин\SOURCE\REPOS\лб7\лб7\DEBUG\лб7.OBJ
